{
  "tags": {
    "allowUnknownTags": true,
    "dictionaries": ["jsdoc", "closure"]
  },
  "source": {
    "include": ["src"],
    "includePattern": "src/.*.ts(doc|x)?$",
    "excludePattern": "(src/assets/.*|src/reportWebVitals.ts|react-app-evn.d.ts|setupTests.ts)"
  },
  "plugins": ["plugins/markdown", "better-docs/component", "node_modules/jsdoc-babel"],
  "templates": {
    "better-docs": {
      "name": "BAK React Frontend Dokumentation"
    }
  },
  "babel": {
    "extensions": ["ts", "tsx"],
    "ignore": ["**/*.(test|spec).ts"],
    "babelrc": false,
    "presets": [["@babel/preset-env", { "targets": { "node": true } }], "@babel/preset-typescript"],
    "plugins": ["@babel/proposal-class-properties", "@babel/proposal-object-rest-spread", ["@babel/plugin-proposal-decorators", {"decoratorsBeforeExport": true}]]
  },
  "opts": {
    "destination": "docs",
    "template": "node_modules/better-docs",
    "recurse": true,
    "readme": "README.md"
  }
}
