{
    "name":"SupplyChainIssues",
    "label": "Weltweite Lieferprobleme",
    "description": "Ihr Unternehmen macht aufgrund welweiter Lieferprobleme weniger Umsatz.",
    "occurText": "Ihr Rundengewinn verringert sich um 700 € für die nächsten 3 Runden.",
    "probability": 100,
    "cost": 0,
    "tags": [],
    "effectNames": ["incomeSupplyIssues"]
  }
