{
  "name": "AwarenessSchulung",
  "cardType":"preventive",
  "label": "Awareness-Schulung",
  "description": "Die Mitarbeiter werden über die IT-Gefahren für Ihre Firma geschult.",
  "effectText": "Durch die Schulung sind Angriffe auf die Mitarbeiter um 30 % weniger effektiv.",
  "price": 500,
  "playPrice": 0,
  "tags": ["UserFault"],
  "effectValue": 30,
  "isProbability": true,
  "isAutoPlay":true,
  "effectNames":["user305"]
}
