{
    "name": "ExpertWLANReaction1",
    "label": "WLAN Bandbreite limitieren",
    "cardType": "reactive",
    "description": "WLAN Bandbreite limitieren",
    "effectText": "Löst das vorhandene Problem.",
    "price": 0,
    "playPrice": 0,
    "tags": ["Infrastructure"],
    "effectValue": 0,
    "isProbability": false,
    "isAutoPlay":false,
    "operation": "SET",
    "effectNames": []
  }
  
