{
  "name":"Netzwerksegmentierung",
  "cardType":"preventive",
  "label": "Netzwerksegmentierung",
  "description": "Das Unternehmensnetzwerk wird in unterschiedliche Netzwerke mit genau zugeschnittenen Zugriffsrechten unterteilt",
  "effectText": "Erhöht die Resistenz gegen netzwerkbasierte Angriffe.",
  "price": 2500,
  "playPrice": 0,
  "tags": ["Network"],
  "effectValue": 0,
  "isProbability": true,
  "isAutoPlay":true,
  "operation": "SET",
  "effectNames":["network9-1"],
  "hintText":"---"
}
