{
    "name": "NeuerPraktikant",
    "label": "Neuer Mitarbeiter",
    "cardType": "preventive",
    "description": "Sie können einen interessierten Studenten als Mitarbeiter für Ihre IT Abteilung einstellen.",
    "effectText": "Da dieser ein umfassendes Studium mit Schwerpunkt IT Sicherheit abgeschlossen hat, verbessert sich hierdurch möglicherweise langfristig ihre IT Sicherheit.",
    "price": 0,
    "playPrice": 450,
    "tags": [],
    "effectValue": 0,
    "isProbability": false,
    "isAutoPlay":false,
    "operation": "SET",
    "effectNames": ["network1-1"]
  }
  
