{
    "name": "SIEM",
    "label": "Implementierung SIEM",
    "cardType": "preventive",
    "description": "Implementierung eines Security and Event Managements",
    "effectText": "Erhöht Netzwerksicherheit leicht.",
    "price": 0,
    "playPrice": 5000,
    "tags": ["Network"],
    "effectValue": 0,
    "isProbability": false,
    "isAutoPlay":true,
    "operation": "SET",
    "effectNames": ["network2a-1"]
  }
  
