{
    "name": "WarnungIgnorieren",
    "label": "Warnung ignorieren und nichts tun",
    "cardType": "reactive",
    "description": "Sie tun nichts.",
    "effectText": "Erhöht das Risiko für Angriffe dauerhaft",
    "price": 0,
    "playPrice": 0,
    "tags": ["Network"],
    "effectValue": 0,
    "isProbability": false,
    "isAutoPlay":false,
    "effectNames": ["network-15-1"],
    "operation": "SET"
  }
  
