<?xml version="1.0" encoding="utf-8"?>
<!-- Generator: Adobe Adobe Illustrator 24.2.0, SVG Export Plug-In . SVG Version: 6.00 Build 0)  -->
<svg version="1.1" xmlns="http://www.w3.org/2000/svg" xmlns:xlink="http://www.w3.org/1999/xlink" x="0px" y="0px"
	 viewBox="0 0 600 600" style="enable-background:new 0 0 600 600;" xml:space="preserve">
<style type="text/css">
	.st0{fill:#9059BA;}
	.st1{fill:#FF9A4B;}
	.st2{fill:#8FDE83;}
	.st3{fill:#F0E173;}
	.st4{fill:#B05B9E;stroke:#944A84;stroke-width:2;stroke-miterlimit:10;}
	.st5{fill:#FFFFFF;}
	.st6{fill:#34C7B8;stroke:#008C8C;stroke-width:2;stroke-linejoin:round;stroke-miterlimit:10;}
	.st7{fill:#008C8C;}
	.st8{fill:#B05B9E;}
	.st9{fill:#852D72;}
	.st10{fill:#34C7B8;}
	.st11{fill:#008282;}
</style>
<g id="Layer_5">
</g>
<g id="Layer_6">
</g>
<g id="Layer_1">
	<g>
		<circle class="st8" cx="300" cy="300" r="287.9"/>
		<path class="st9" d="M300,597.9c-79.57,0-154.38-30.99-210.64-87.25S2.1,379.57,2.1,300S33.09,145.62,89.36,89.36
			S220.43,2.1,300,2.1s154.38,30.99,210.64,87.25C566.91,145.62,597.9,220.43,597.9,300s-30.99,154.38-87.25,210.64
			C454.38,566.91,379.57,597.9,300,597.9z M300,22.1c-74.23,0-144.01,28.91-196.5,81.39C51.01,155.99,22.1,225.77,22.1,300
			s28.91,144.01,81.39,196.5c52.49,52.49,122.27,81.39,196.5,81.39s144.01-28.91,196.5-81.39c52.49-52.49,81.39-122.27,81.39-196.5
			s-28.91-144.01-81.39-196.5C444.01,51.01,374.23,22.1,300,22.1z"/>
	</g>
</g>
<g id="Layer_8">
</g>
<g id="Layer_10">
</g>
<g id="Layer_11">
</g>
<g id="Layer_15">
</g>
<g id="Layer_16">
</g>
<g id="Layer_12">
</g>
<g id="Layer_14">
</g>
<g id="Layer_13">
</g>
<g id="Layer_17">
</g>
<g id="Layer_4">
	<path class="st5" d="M379.72,229.33c0,0-53.06,147.72-53.05,147.72c-3.33,9.04-9.76,6.64-16.17,7.03
		c-6.54,0.2-9.16-5.75-6.94-11.09c0,0,53.06-147.72,53.05-147.72c3.33-9.04,9.77-6.64,16.17-7.02
		C379.31,218.03,381.93,223.98,379.72,229.33z M451.42,218.23h-54.53c-5.83,0-9.6,4.05-9.6,10.32c-0.61,7.3,0.23,17.7,9.6,17.24
		c0,0,36.27,0,36.27,0s-34.27,126.54-34.27,126.54c-1.75,6.08,1.12,11.93,8.28,11.75c7.54-0.49,15.42,2.57,18.75-8.59
		c0.5-4.14,38.1-137.99,35.1-138.17C461.39,229.91,461.7,217.65,451.42,218.23z M183.22,321.52
		c88.79-101.33-49.29-150.94-44.23-54.94c-0.44,10.11,9.25,10.66,16.73,10.09c19.16-0.29,0.43-33.87,19.29-33.19
		c4.69,0,9.7,1.25,9.7,16.18c0,15.15-5.58,26.76-22.1,46c-20.36,22.57-24.7,41.15-23.62,68.09c0,6.27,3.77,10.32,9.6,10.32h52.01
		c9.35,0.43,10.23-9.92,9.59-17.24c0-6.27-3.77-10.32-9.59-10.32h-34.44C165.98,344.68,169.52,337.58,183.22,321.52z M300.37,344.48
		c-0.3,9.59-5.23,10.7-10.91,10.32c-0.95,8.17,4.29,30-9.6,29.27c-24.32,2.41-16.76-12.47-17.98-29.27c0,0-34.44,0-34.44,0
		c-10.81,0.59-9.81-12.71-9.6-20.23c-2.72-3.76,38.33-102.85,39.79-108.67c2.78-10.16,14.57-7.23,22.24-7.67
		c5.83,0,9.6,4.05,9.6,10.32v98.69h1.31C300.13,326.78,300.99,337.19,300.37,344.48z M244.28,327.24h17.6v-48.9L244.28,327.24z"/>
	<path class="st5" d="M530.78,274.3c-2.07-17.7-17.92-102.52-43.15-89.19c-6.06,3.31-8.3,10.88-5.04,16.96
		c38.06,71.19,32.51,161.4-21.4,228.15c-71.25,88.22-201.35,102.57-290.12,32.01c-204.34-162.8,29.35-479.51,244.7-334.05
		c-10.24,1.61-32.04-0.3-30.15,15.94c0.76,6.86,6.95,11.8,13.81,11.04l46.21-5.15c6.95-0.77,11.92-7.13,11.01-14.06
		c0,0-5.15-46.21-5.15-46.21c-0.76-6.86-6.95-11.8-13.81-11.04c-14.47,1.86-10.75,17.64-9.49,27.7
		C181.75-50.41-69.87,292.04,153.7,480.35C308.34,611.82,558.18,475.62,530.78,274.3z"/>
</g>
<g id="Layer_3">
</g>
<g id="Layer_7">
</g>
</svg>
