<?xml version="1.0" encoding="utf-8"?>
<!-- Generator: Adobe Adobe Illustrator 24.2.0, SVG Export Plug-In . SVG Version: 6.00 Build 0)  -->
<svg version="1.1" xmlns="http://www.w3.org/2000/svg" xmlns:xlink="http://www.w3.org/1999/xlink" x="0px" y="0px"
	 viewBox="0 0 600 600" style="enable-background:new 0 0 600 600;" xml:space="preserve">
<style type="text/css">
	.st0{fill:#9059BA;}
	.st1{fill:#FF9A4B;}
	.st2{fill:#8FDE83;}
	.st3{fill:#F0E173;}
	.st4{fill:#B05B9E;stroke:#944A84;stroke-width:2;stroke-miterlimit:10;}
	.st5{fill:#FFFFFF;}
	.st6{fill:#34C7B8;stroke:#008C8C;stroke-width:2;stroke-linejoin:round;stroke-miterlimit:10;}
	.st7{fill:#008C8C;}
	.st8{fill:#B05B9E;}
	.st9{fill:#852D72;}
	.st10{fill:#34C7B8;}
	.st11{fill:#008282;}
	.st12{fill:#2FB5D6;}
	.st13{fill:#136594;}
	.st14{fill:#2AA7C7;}
</style>
<g id="Layer_5">
</g>
<g id="Layer_6">
</g>
<g id="Layer_1">
</g>
<g id="Layer_8">
</g>
<g id="Layer_10">
</g>
<g id="Layer_11">
</g>
<g id="Layer_15">
</g>
<g id="Layer_16">
</g>
<g id="Layer_12">
</g>
<g id="Layer_14">
</g>
<g id="Layer_13">
</g>
<g id="Layer_17">
</g>
<g id="Layer_4">
</g>
<g id="Layer_3">
</g>
<g id="Layer_7">
</g>
<g id="Layer_18">
	<g>
		<path class="st12" d="M12.26,576.4V23.6c0-6.27,5.08-11.35,11.35-11.35H576.4c6.27,0,11.35,5.08,11.35,11.35V576.4
			c0,6.27-5.08,11.35-11.35,11.35H23.6C17.34,587.74,12.26,582.66,12.26,576.4z"/>
		<path class="st13" d="M576.4,597.74H23.6c-11.77,0-21.35-9.58-21.35-21.35V23.6c0-11.77,9.58-21.35,21.35-21.35H576.4
			c11.77,0,21.35,9.58,21.35,21.35V576.4C597.74,588.17,588.17,597.74,576.4,597.74z M23.6,22.26c-0.74,0-1.35,0.6-1.35,1.35V576.4
			c0,0.74,0.6,1.35,1.35,1.35H576.4c0.74,0,1.35-0.6,1.35-1.35V23.6c0-0.74-0.6-1.35-1.35-1.35H23.6z"/>
	</g>
	<path class="st13" d="M282.32,315.09h25.56v33.43h-25.56V315.09z M93.75,348.51h23.4v-151.8h43.45v-23.2H93.75V348.51z
		 M430.58,173.51v23.4h43.65v151.6h23.2v-175H430.58z"/>
	<path class="st5" d="M225.49,285.4l22.42-22.42c7.28,4.13,14.94,7.47,23.2,9.63v31.66h49.16v-31.66c8.26-2.16,16.12-5.51,23.2-9.63
		l22.42,22.42l34.61-34.61l-22.42-22.61c4.13-7.28,7.47-14.94,9.63-23.2h31.66v-49.16h-31.46c-2.16-8.26-5.51-16.12-9.63-23.2
		l22.42-22.42l-34.61-34.61l-22.42,22.42c-7.28-4.13-14.94-7.47-23.2-9.63V56.52h-49.16v31.66c-8.26,2.16-16.12,5.51-23.2,9.63
		L225.69,75.4L191.08,110l22.42,22.42c-4.13,7.28-7.47,14.94-9.63,23.2h-32.05v49.16h31.66c2.16,8.26,5.51,16.12,9.63,23.2
		l-22.42,22.42L225.49,285.4z M295.69,130.26c65.58,0.26,65.58,100.03,0,100.28C230.11,230.28,230.11,130.5,295.69,130.26z
		 M111.25,520.17c0.14,6.4-9.19,6.4-9.04,0C102.08,513.8,111.43,513.65,111.25,520.17z M142.32,369.36H71.14
		c-2.56,0-4.72,2.16-4.72,4.72V530c0,2.56,2.16,4.72,4.72,4.72h71.38c2.56,0,4.72-2.16,4.72-4.72V374.08
		C147.04,371.32,144.88,369.36,142.32,369.36z M106.73,529.61c-11.49,0.19-11.49-19.46,0-19.27
		C118.29,510.16,118.07,529.76,106.73,529.61z M135.24,507.59H79.2V382.73h56.04V507.59z M193.05,523.12c0,6.29,5.11,11.4,11.4,11.4
		h186.4c12.55-0.18,11.78-13.56,11.4-22.61H193.05V523.12z M278.19,517.61h38.34v11.4h-38.34V517.61z M560.35,454.3L560.35,454.3
		c0,15.14-12.39,27.53-27.53,27.53c-4.62,0-86.09-0.03-88.87,0c-37.36,0.45-44.43-55.29-9.24-65.08c0-0.39,0-0.98,0-1.38l0,0
		c-0.65-39.58,56.49-49.6,69.8-13.17c18.79-10.39,43.54,5.95,40.51,27.53C554.06,434.05,560.35,443.49,560.35,454.3z M209.17,369.55
		v129.18h176.57V369.55c0-4.33-3.54-7.87-7.87-7.87H217.04C212.71,361.69,209.17,365.23,209.17,369.55z M227.85,385.87
		c0-4.33,3.54-7.87,7.87-7.87h126.83c4.33,0,7.87,3.54,7.87,7.87v97.92H227.85C227.85,483.79,227.85,385.87,227.85,385.87z"/>
</g>
<g id="Layer_19">
</g>
</svg>
