<?xml version="1.0" encoding="utf-8"?>
<!-- Generator: Adobe Adobe Illustrator 24.2.0, SVG Export Plug-In . SVG Version: 6.00 Build 0)  -->
<svg version="1.1" xmlns="http://www.w3.org/2000/svg" xmlns:xlink="http://www.w3.org/1999/xlink" x="0px" y="0px"
	 viewBox="0 0 728.5 1031.81" style="enable-background:new 0 0 728.5 1031.81;" xml:space="preserve">
<style type="text/css">
	.st0{fill:#1D2036;}
	.st1{fill:#7ECF72;}
	.st2{fill:#EBD952;}
	.st3{fill:#EB8F49;}
	.st4{fill:#E0363C;}
	.st5{fill:#3F4A9E;}
	.st6{fill:#3DB32B;}
	.st7{fill:#DEC400;}
	.st8{fill:#CF5A00;}
	.st9{fill:#A1060C;}
	.st10{fill:#111B61;}
	.st11{fill:#A9F09E;}
	.st12{fill:#EAEDAF;}
	.st13{fill:#FFCAA1;}
	.st14{fill:#E35257;}
	.st15{fill:#AAB3FA;}
	.st16{fill:#7A7878;}
	.st17{fill:#3B3A3A;}
	.st18{fill:#A8A8A8;}
	.st19{fill:#BEC2C0;}
	.st20{fill:#E3E3E3;}
	.st21{opacity:0.251;fill:#3B3A3A;}
	.st22{fill:#FFFFFF;}
	.st23{fill:#2B2B2B;}
	.st24{stroke:#000000;stroke-miterlimit:10;}
	.st25{fill:#8FDE83;}
	.st26{opacity:0.2902;}
	.st27{fill:none;stroke:#3B3A3A;stroke-width:6;stroke-miterlimit:10;}
	.st28{fill:#3B3A3A;stroke:#3B3A3A;stroke-miterlimit:10;}
	.st29{opacity:0.2588;}
	.st30{fill:none;stroke:#7ECF72;stroke-width:33;stroke-linecap:round;stroke-miterlimit:10;}
	.st31{fill:#72B567;}
	.st32{fill:#B0E3A8;}
	.st33{opacity:0.7608;fill:#3B3A3A;}
	.st34{fill:#F0E173;}
	.st35{fill:#D4803F;}
	.st36{opacity:0.2;}
	.st37{opacity:0.2;fill:#3B3A3A;}
	.st38{fill:#E8D22A;}
	.st39{fill:none;stroke:#FFFFFF;stroke-width:6;stroke-miterlimit:10;}
</style>
<g id="Layer_1">
</g>
<g id="Layer_2">
</g>
<g id="Layer_5">
</g>
<g id="Incident">
	<polygon class="st14" points="0,1027.71 0,670.93 0,0 728.5,0 728.5,333.79 728.5,1027.71 	"/>
	<polygon class="st4" points="728.5,264.5 0,712.5 0,1034.31 728.5,1034.31 	"/>
	<g id="Layer_11">
		<path class="st21" d="M398.43,343.51c-4.21-13.67,16.94-20.25,21.23-6.6C423.85,350.53,402.78,357.2,398.43,343.51z
			 M500.77,372.33c-14.54,0.35-13.7,22.47,0.77,21.75C516.05,393.73,515.29,371.62,500.77,372.33z M237.39,394.09
			c16.79-0.44,13.56-25.58-2.76-21.41C222.43,375.81,224.97,394.24,237.39,394.09z M332.33,351.09
			c16.79-0.44,13.56-25.58-2.76-21.41C317.36,332.8,319.91,351.23,332.33,351.09z M412.49,682.26
			c-13.72-4.78-20.75,16.21-6.91,20.63C419.21,707.7,426.39,686.7,412.49,682.26z M234.62,660.09c13.82,4.23,20.07-17.06,6-20.92
			C226.7,634.98,220.61,656.26,234.62,660.09z M336.01,682.32c-13.73-4.78-20.75,16.22-6.9,20.64
			C342.74,707.76,349.91,686.77,336.01,682.32z M549.21,523.96l-41.46,0.26v17.74c23.27-3.64,23.23,25.24-0.01,21.76
			c-0.03,6.63-0.73,13.11-2.05,19.36c6.47-0.2,12.85,1.83,17.48,6.42c0,0,17.23,13.51,17.23,13.51
			c14.31-5.27,30.44,6.12,30.16,21.43c-1.16,33.35-51.39,27.44-44.78-5.25c-0.76-0.4-18.36-14.71-18.36-14.3
			c0,0-9.07-0.22-9.07-0.22c-8.63,17.96-22.7,32.82-40.06,42.45c0.28,0.65,0.5,41.4,1.29,41.84c0,0,34.91,33.37,34.91,33.37
			c14.21-4.61,29.62,6.7,29.37,21.7c-1.29,33.97-52.49,26.91-44.55-6.12c-7.86-9.97-43.43-34.3-41.76-49.07c0,0-0.8-33-0.8-33
			c-5.52,1.48-11.23,2.48-17.1,2.94c3.94,23.89-25.25,24.28-21.75,0.31h-15.46l0.27,42.03c20.05,10.66,11.98,42.9-11.09,42.49
			c-23.33,0.39-31.16-32.37-10.67-42.73l-0.27-41.8h-17.74c3.71,23.89-25.44,23.61-21.76-0.17c-7.64-0.44-15.04-1.79-22.1-3.93
			c-0.26,57.95,0.09,41.61-39.12,81.19c4.78,32.13-44.06,36.47-45.04,4c-0.34-15.81,16.91-27.27,31.33-20.99
			c40.31-39.09,28.38-18.1,31.3-73.77c-15.73-9.47-28.53-23.34-36.7-39.89l-12.42,0.3c0.18-0.45-17.74,13.95-18.36,14.3
			c6.61,32.7-43.63,38.6-44.78,5.25c-0.29-15.31,15.84-26.71,30.16-21.43c10.46-7.49,23.45-22.5,37.82-20
			c-1.37-6.22-2.14-12.66-2.23-19.27c-8.84,0.25-19.9,0.83-20.38-11.01c0.62-11.76,11.56-11.13,20.36-10.75v-17.74l-44.38-0.28
			c-10.36,20.49-43.12,12.66-42.73-10.67c-0.4-23.07,31.84-31.14,42.49-11.09l44.62,0.28v-15.47c-8.83,0.25-19.89,0.82-20.36-11.01
			c0.64-12.13,12.2-11.03,21.1-10.74c0.82-6.56,2.3-12.91,4.38-18.99c-22.93,1.87-28.19-7.69-44.72-20.17
			c-14.31,5.27-30.44-6.12-30.16-21.43c1.16-33.35,51.39-27.44,44.78,5.25c22.12,17.03,12.6,14.18,40.63,14.85
			c7.96-12.14,18.6-22.36,31.08-29.83c-0.28-0.65-0.78-53.26-1.58-53.7c0,0-29.93-28.61-29.93-28.61
			c-14.42,6.28-31.67-5.17-31.33-20.99c0.98-32.48,49.82-28.12,45.04,4c45.33,43.11,37.61,27.69,39.33,89.79
			c6.98-2.1,14.29-3.42,21.83-3.86c0.48-9.24-3.14-26.34,10.98-26.62c14.14,0.31,10.47,17.2,10.78,26.44h17.74l0.32-50.47
			c-20.49-10.36-12.66-43.12,10.67-42.73c23.07-0.4,31.14,31.84,11.09,42.49l-0.32,50.7h15.46c0.45-9.25-3.08-26.23,11.05-26.44
			c14.17,0.38,10.35,17.51,10.71,26.75c5.81,0.46,11.47,1.44,16.94,2.89c0.7-65.24-1.95-45.92,42.77-90.68
			c-7.94-33.04,43.27-40.09,44.55-6.12c0.25,14.99-15.16,26.31-29.37,21.7c-45.51,44.48-33.56,20.55-36.41,83.75
			c13.39,7.39,24.84,17.89,33.36,30.52c27.25-0.44,16.78,1.18,38.37-14.79c-6.61-32.7,43.63-38.6,44.78-5.25
			c0.29,15.31-15.84,26.71-30.16,21.43c-14.28,10.6-22.35,22.28-42.16,20.11c2.16,6.09,3.72,12.45,4.6,19.03
			c23.69-4.15,24.86,24.98,0.87,21.75v15.47l41.7-0.27c10.66-20.05,42.9-11.98,42.49,11.09
			C592.33,536.62,559.57,544.45,549.21,523.96z M559.73,513.29c0.07,12.44,18.96,12.44,19.03,0
			C578.69,500.85,559.79,500.86,559.73,513.29z M542.38,404.68c0.07,12.44,18.96,12.44,19.03,0
			C561.34,392.24,542.45,392.24,542.38,404.68z M491.64,288.76c0.07,12.44,18.96,12.44,19.03,0
			C510.61,276.32,491.71,276.32,491.64,288.76z M362.09,311.86c0.07,12.44,18.96,12.44,19.03,0
			C381.05,299.43,362.16,299.43,362.09,311.86z M247.13,292.6c-0.07-12.44-18.96-12.44-19.03,0
			C228.17,305.04,247.07,305.04,247.13,292.6z M193.47,405.63c-0.07-12.44-18.96-12.44-19.03,0
			C174.51,418.07,193.41,418.07,193.47,405.63z M176.13,514.24c-0.07-12.44-18.96-12.44-19.03,0
			C157.17,526.68,176.06,526.68,176.13,514.24z M197.51,625.39c-0.07-12.44-18.96-12.44-19.03,0
			C178.55,637.83,197.44,637.83,197.51,625.39z M247.13,740.18c-0.07-12.44-18.96-12.44-19.03,0
			C228.17,752.62,247.07,752.62,247.13,740.18z M381.12,720.91c-0.07-12.44-18.96-12.44-19.03,0
			C362.16,733.35,381.06,733.35,381.12,720.91z M491.64,744.02c0.07,12.44,18.96,12.44,19.03,0
			C510.61,731.58,491.71,731.58,491.64,744.02z M538.35,624.45c0.07,12.44,18.96,12.44,19.03,0
			C557.31,612.01,538.41,612.01,538.35,624.45z M494.57,524.31l-13.58,0.09l-0.14-21.75l13.71-0.09v-15.47
			c-0.03,0.01-51.19,0.32-51.23,0.33c-5.98,0-10.84-4.82-10.88-10.81c-0.04-6.01,4.8-10.91,10.81-10.95l50.31-0.32
			c-1.02-6.54-2.82-12.83-5.28-18.78l-36.78,0.9l-0.53-21.75l24.27-0.59c-7.01-8.36-15.64-15.31-25.41-20.37l-13.78-0.34l0.13-5.25
			c-5.35-1.65-10.94-2.76-16.69-3.28l-0.27,41.95c-0.04,6.01-4.95,10.85-10.95,10.81c-6.01-0.04-10.85-4.94-10.81-10.95l0.27-42.15
			h-15.46l-0.03,4.71l-21.76-0.14l0.03-4.57h-17.74l-0.27,42.29c-0.04,5.98-4.9,10.81-10.88,10.81c-6.03,0-10.92-4.91-10.88-10.95
			c0,0,0.27-41.95,0.27-41.95c-7.45,0.52-14.63,2.02-21.41,4.39l0.06,2.65c-14.05-0.87-28.28,13.48-36.99,23.33l22.17,0.54
			l-0.53,21.75l-34.27-0.83c-2.37,5.94-4.07,12.21-5.01,18.73l47.53,0.3c14.07-0.12,14,21.97-0.07,21.75
			c-0.06,0.04-48.24-0.33-48.31-0.31v15.47l10.79,0.07l-0.14,21.75l-10.65-0.07v17.74c0,0,48.38,0.31,48.38,0.31
			c14.07-0.12,14,21.97-0.07,21.76c-0.06,0.04-48.23-0.33-48.29-0.31c0.11,6.49,0.98,12.81,2.51,18.85l41.63-1.01l0.53,21.75
			l-33.27,0.81c5.7,9.65,13.3,18.05,22.29,24.67l0.01-0.39l21.75,0.53l-0.27,11.24c6.86,2.42,14.13,3.95,21.68,4.47l-0.32-50.62
			c-0.04-6.03,4.85-10.95,10.88-10.95c5.98,0,10.84,4.82,10.88,10.81l0.32,50.96h17.74l-0.08-13.24l21.76-0.14l0.09,13.38h15.46
			c0,0-0.32-50.82-0.32-50.82c-0.04-6.01,4.8-10.91,10.81-10.95c6-0.04,10.91,4.8,10.95,10.81c0,0,0.32,50.61,0.32,50.61
			c5.81-0.53,11.45-1.66,16.85-3.34l-0.34-13.85l21.75-0.53l0.1,4.08c10.55-7.09,19.38-16.54,25.73-27.6l-36.7-0.89l0.53-21.75
			l44.77,1.09c1.47-6.08,2.27-12.43,2.31-18.95c-0.03,0.01-51.19,0.32-51.22,0.33c-5.98,0-10.84-4.82-10.88-10.81
			c-0.04-6.01,4.8-10.91,10.81-10.95l51.3-0.33V524.31z M530.58,472.41c-4.82,13.99,16.74,20.8,20.78,6.45
			C555.52,465.26,534.86,458.84,530.58,472.41z M501.26,636.67c-13.67-4.21-20.25,16.94-6.6,21.23
			C508.24,662.13,514.97,640.97,501.26,636.67z M544.27,541.73c-13.67-4.2-20.24,16.95-6.59,21.23
			C551.25,567.19,557.97,546.03,544.27,541.73z M195.02,487.91c16.64-0.63,12.61-26.04-3.36-21.72
			C179.73,469.74,182.86,488.1,195.02,487.91z M194.95,564.4c16.64-0.63,12.6-26.04-3.37-21.72
			C179.66,546.22,182.79,564.58,194.95,564.4z"/>
		<path class="st22" d="M391.07,338.83c-4.21-13.67,16.94-20.25,21.23-6.6C416.5,345.86,395.42,352.53,391.07,338.83z
			 M493.42,367.65c-14.54,0.35-13.7,22.47,0.77,21.75C508.69,389.05,507.93,366.95,493.42,367.65z M230.03,389.42
			c16.79-0.44,13.56-25.58-2.76-21.41C215.07,371.14,217.61,389.57,230.03,389.42z M324.97,346.41
			c16.79-0.44,13.56-25.58-2.76-21.41C310.01,328.13,312.55,346.56,324.97,346.41z M405.14,677.58
			c-13.72-4.78-20.75,16.21-6.91,20.63C411.86,703.02,419.04,682.03,405.14,677.58z M227.26,655.42c13.82,4.23,20.07-17.06,6-20.92
			C219.35,630.31,213.25,651.58,227.26,655.42z M328.65,677.65c-13.73-4.78-20.75,16.22-6.9,20.64
			C335.38,703.09,342.55,682.09,328.65,677.65z M541.86,519.29l-41.46,0.26v17.74c23.27-3.64,23.23,25.24-0.01,21.76
			c-0.03,6.63-0.73,13.11-2.05,19.36c6.47-0.2,12.85,1.83,17.48,6.42c0,0,17.23,13.51,17.23,13.51
			c14.31-5.27,30.44,6.12,30.16,21.43c-1.16,33.35-51.39,27.44-44.78-5.25c-0.76-0.4-18.36-14.71-18.36-14.3
			c0,0-9.07-0.22-9.07-0.22c-8.63,17.96-22.7,32.82-40.06,42.45c0.28,0.65,0.5,41.4,1.29,41.84c0,0,34.91,33.37,34.91,33.37
			c14.21-4.61,29.62,6.7,29.37,21.7c-1.29,33.97-52.49,26.91-44.55-6.12c-7.86-9.97-43.43-34.3-41.76-49.07c0,0-0.8-33-0.8-33
			c-5.52,1.48-11.23,2.48-17.1,2.94c3.94,23.89-25.25,24.28-21.75,0.31h-15.46l0.27,42.03c20.05,10.66,11.98,42.9-11.09,42.49
			c-23.33,0.39-31.16-32.37-10.67-42.73l-0.27-41.8h-17.74c3.71,23.89-25.44,23.61-21.76-0.17c-7.64-0.44-15.04-1.79-22.1-3.93
			c-0.26,57.95,0.09,41.61-39.12,81.19c4.78,32.13-44.06,36.47-45.04,4c-0.34-15.81,16.91-27.27,31.33-20.99
			c40.31-39.08,28.38-18.1,31.3-73.77c-15.73-9.47-28.53-23.34-36.7-39.89l-12.42,0.3c0.18-0.45-17.74,13.95-18.36,14.3
			c6.61,32.7-43.63,38.6-44.78,5.25c-0.29-15.31,15.84-26.71,30.16-21.43c10.46-7.49,23.45-22.5,37.82-20
			c-1.37-6.22-2.14-12.66-2.23-19.27c-8.84,0.25-19.9,0.83-20.38-11.01c0.62-11.76,11.56-11.13,20.36-10.75v-17.74l-44.38-0.28
			c-10.36,20.49-43.12,12.66-42.73-10.67c-0.4-23.07,31.84-31.14,42.49-11.09l44.62,0.28V483.3c-8.83,0.25-19.89,0.82-20.36-11.01
			c0.64-12.13,12.2-11.03,21.1-10.74c0.82-6.56,2.3-12.91,4.38-18.99c-22.93,1.87-28.19-7.69-44.72-20.17
			c-14.31,5.27-30.44-6.12-30.16-21.43c1.16-33.35,51.39-27.44,44.78,5.25c22.12,17.03,12.6,14.18,40.63,14.85
			c7.96-12.14,18.6-22.36,31.08-29.83c-0.28-0.65-0.78-53.26-1.58-53.7c0,0-29.93-28.61-29.93-28.61
			c-14.42,6.28-31.67-5.17-31.33-20.99c0.98-32.48,49.82-28.12,45.04,4c45.33,43.11,37.61,27.69,39.33,89.79
			c6.98-2.1,14.29-3.42,21.83-3.86c0.48-9.24-3.14-26.34,10.98-26.62c14.14,0.31,10.47,17.2,10.78,26.44h17.74l0.32-50.47
			c-20.49-10.36-12.66-43.12,10.67-42.73c23.07-0.4,31.14,31.84,11.09,42.49l-0.32,50.7h15.46c0.45-9.25-3.08-26.23,11.05-26.44
			c14.17,0.38,10.35,17.51,10.71,26.75c5.81,0.46,11.47,1.44,16.94,2.89c0.7-65.24-1.95-45.92,42.77-90.68
			c-7.94-33.04,43.27-40.09,44.55-6.12c0.25,14.99-15.16,26.31-29.37,21.7c-45.51,44.48-33.56,20.55-36.41,83.75
			c13.39,7.39,24.84,17.89,33.36,30.52c27.25-0.44,16.78,1.18,38.37-14.79c-6.61-32.7,43.63-38.6,44.78-5.25
			c0.29,15.31-15.84,26.71-30.16,21.43c-14.28,10.6-22.35,22.28-42.16,20.11c2.16,6.09,3.72,12.45,4.6,19.03
			c23.69-4.15,24.86,24.98,0.87,21.75v15.47l41.7-0.27c10.66-20.05,42.9-11.98,42.49,11.09
			C584.98,531.94,552.21,539.78,541.86,519.29z M552.37,508.62c0.07,12.44,18.96,12.44,19.03,0
			C571.33,496.18,552.44,496.18,552.37,508.62z M535.03,400.01c0.07,12.44,18.96,12.44,19.03,0
			C553.99,387.57,535.09,387.57,535.03,400.01z M484.29,284.09c0.07,12.44,18.96,12.44,19.03,0
			C503.25,271.65,484.35,271.65,484.29,284.09z M354.74,307.19c0.07,12.44,18.96,12.44,19.03,0
			C373.7,294.75,354.8,294.75,354.74,307.19z M239.78,287.92c-0.07-12.44-18.96-12.44-19.03,0
			C220.82,300.36,239.71,300.36,239.78,287.92z M186.12,400.95c-0.07-12.44-18.96-12.44-19.03,0
			C167.16,413.39,186.05,413.39,186.12,400.95z M168.77,509.57c-0.07-12.44-18.96-12.44-19.03,0
			C149.81,522,168.71,522,168.77,509.57z M190.15,620.72c-0.07-12.44-18.96-12.44-19.03,0
			C171.19,633.16,190.09,633.16,190.15,620.72z M239.78,735.51c-0.07-12.44-18.96-12.44-19.03,0
			C220.82,747.94,239.71,747.94,239.78,735.51z M373.76,716.24c-0.07-12.44-18.96-12.44-19.03,0
			C354.8,728.68,373.7,728.68,373.76,716.24z M484.29,739.34c0.07,12.44,18.96,12.44,19.03,0
			C503.25,726.9,484.35,726.91,484.29,739.34z M530.99,619.77c0.07,12.44,18.96,12.44,19.03,0
			C549.95,607.33,531.06,607.33,530.99,619.77z M487.21,519.64l-13.58,0.09l-0.14-21.75l13.71-0.09v-15.47
			c-0.03,0.01-51.19,0.32-51.23,0.33c-5.98,0-10.84-4.82-10.88-10.81c-0.04-6.01,4.8-10.91,10.81-10.95l50.31-0.32
			c-1.02-6.54-2.82-12.83-5.28-18.78l-36.78,0.9l-0.53-21.75l24.27-0.59c-7.01-8.36-15.64-15.31-25.41-20.37l-13.78-0.34l0.13-5.25
			c-5.35-1.65-10.94-2.76-16.69-3.28l-0.27,41.95c-0.04,6.01-4.95,10.85-10.95,10.81c-6.01-0.04-10.85-4.94-10.81-10.95l0.27-42.15
			h-15.46l-0.03,4.71l-21.76-0.14l0.03-4.57h-17.74l-0.27,42.29c-0.04,5.98-4.9,10.81-10.88,10.81c-6.03,0-10.92-4.91-10.88-10.95
			c0,0,0.27-41.95,0.27-41.95c-7.45,0.52-14.63,2.02-21.41,4.39l0.06,2.65c-14.05-0.87-28.28,13.48-36.99,23.33l22.17,0.54
			l-0.53,21.75l-34.27-0.83c-2.37,5.94-4.07,12.21-5.01,18.73l47.53,0.3c14.07-0.12,14,21.97-0.07,21.75
			c-0.06,0.04-48.24-0.33-48.31-0.31v15.47l10.79,0.07l-0.14,21.75l-10.65-0.07v17.74l48.38,0.31c14.07-0.12,14,21.97-0.07,21.76
			c-0.06,0.04-48.23-0.33-48.29-0.31c0.11,6.49,0.98,12.81,2.51,18.85l41.63-1.01l0.53,21.75l-33.27,0.81
			c5.7,9.65,13.3,18.05,22.29,24.67l0.01-0.39l21.75,0.53l-0.27,11.24c6.86,2.42,14.13,3.95,21.68,4.47l-0.32-50.62
			c-0.04-6.03,4.85-10.95,10.88-10.95c5.98,0,10.84,4.82,10.88,10.81l0.32,50.96h17.74l-0.08-13.24l21.76-0.14l0.09,13.38h15.46
			c0,0-0.32-50.82-0.32-50.82c-0.04-6.01,4.8-10.91,10.81-10.95c6-0.04,10.91,4.8,10.95,10.81c0,0,0.32,50.61,0.32,50.61
			c5.81-0.53,11.45-1.66,16.85-3.34l-0.34-13.85l21.75-0.53l0.1,4.08c10.55-7.09,19.38-16.54,25.73-27.6l-36.7-0.89l0.53-21.75
			l44.77,1.09c1.47-6.08,2.27-12.43,2.31-18.95c-0.03,0.01-51.19,0.32-51.22,0.33c-5.98,0-10.84-4.82-10.88-10.81
			c-0.04-6.01,4.8-10.91,10.81-10.95l51.3-0.33V519.64z M523.23,467.73c-4.82,13.99,16.74,20.8,20.78,6.45
			C548.16,460.58,527.5,454.17,523.23,467.73z M493.91,631.99c-13.67-4.21-20.25,16.94-6.6,21.23
			C500.89,657.46,507.61,636.3,493.91,631.99z M536.91,537.05c-13.67-4.2-20.24,16.95-6.59,21.23
			C543.9,562.52,550.61,541.35,536.91,537.05z M187.67,483.24c16.64-0.63,12.61-26.04-3.36-21.72
			C172.38,465.06,175.5,483.42,187.67,483.24z M187.6,559.72c16.64-0.63,12.6-26.04-3.37-21.72
			C172.31,541.55,175.43,559.9,187.6,559.72z"/>
		<path class="st19" d="M230.26,556.39c-2.2-74.88-8.94-166.78,91.43-172.11c74.87-2.2,166.77-8.94,172.11,91.43
			c2.2,74.87,8.94,166.78-91.43,172.11C327.5,650.02,235.6,656.75,230.26,556.39z"/>
		<g>
			<path class="st18" d="M237.12,563.1c-1.62-72.93-11.08-167.99,88.77-172.62c36.99,2.31,111.11-9.66,140.17,19.29
				c-15.93-15.11-37.5-24.38-61.24-24.38c-72.71-1.56-168.96-11.22-173.56,88.29c1.74,45.55-11.88,124.01,33.39,153.33
				C247.69,610.92,237.12,588.24,237.12,563.1z"/>
		</g>
	</g>
	<g id="Layer_4_copy">
		<g>
			<g>
				<path class="st22" d="M451.07,551.42c42.02-64.51-8.78-157.57-86.82-155.18c-77.85-2.25-128.87,90.6-86.85,155.12
					c2.4,3.91,3.68,8.41,3.68,13.01c-2.09,20.48,9.19,31.8,29.69,29.69c18.11,0.18-0.65,34.58,38.05,38.06c0,0,30.86,0,30.86,0
					c38.73-3.49,19.9-37.82,38.05-38.05c14.5,1.94,29.72-5.45,29.69-21.69C447.23,565.52,447.07,557.32,451.07,551.42z"/>
			</g>
		</g>
		<g>
			<g>
				<path class="st20" d="M364.19,396.76c-12.48-0.36-24.26,1.73-35.08,5.75c67.51-7.08,143.83,46.54,105.92,140.7
					c-3.38,6.16-2.39,14.13-1.51,20.8c1.69,15.86-12.83,24.62-27.29,24.19c-17.99,2.11,4.11,33.68-33.94,41
					c-8.55,0.93-18.6,2.66-28.11,2.83c1.43,0.25,2.96,0.46,4.59,0.6c0,0,30.86,0,30.86,0c38.73-3.49,19.9-37.82,38.05-38.05
					c14.5,1.94,29.72-5.45,29.69-21.69c-0.2-6.85-0.36-15.05,3.64-20.95C493.04,487.42,442.24,394.36,364.19,396.76z"/>
			</g>
		</g>
		<g>
			<path class="st17" d="M432.37,523.94c2.16-16.23-13.67-11.56-31.61-11.19c-23.02,0.49-24.31,23.69-16.16,36.9
				C393.25,563.69,429.21,547.65,432.37,523.94z"/>
		</g>
		<g>
			<g>
				<path class="st23" d="M400.75,512.76c-5.14,0.11-9.19,1.35-12.3,3.36c2.93-1.28,6.27-1.96,10.02-1.85
					c18.57,0.54,35.99-4.74,29.87,16.71c-0.89,3.12-2.11,6.11-3.56,8.96c3.95-4.62,6.8-10.07,7.58-16
					C434.52,507.71,418.7,512.38,400.75,512.76z"/>
			</g>
		</g>
		<g>
			<path class="st17" d="M296.13,522.93c-2.16-16.23,13.67-11.56,31.61-11.19c23.02,0.49,24.31,23.69,16.16,36.9
				C335.25,562.68,299.29,546.64,296.13,522.93z"/>
		</g>
		<g>
			<g>
				<path class="st23" d="M300.16,529.97c-6.12-21.45,11.3-16.16,29.87-16.71c3.76-0.11,7.09,0.56,10.02,1.84
					c-3.11-2.01-7.16-3.25-12.3-3.36c-17.95-0.38-33.77-5.05-31.61,11.19c0.79,5.93,3.63,11.38,7.58,16
					C302.26,536.08,301.05,533.09,300.16,529.97z"/>
			</g>
		</g>
		<path class="st24" d="M356.43,572.35c4.05-17.67,10.69-19.31,15.39,0c4.64,12.91-3.45,13.86-7.7,13.86
			C359.88,586.21,352.41,585.54,356.43,572.35z"/>
	</g>
</g>
<g id="Layer_13">
</g>
<g id="Layer_16">
</g>
</svg>
