{
  "name": "AngriffEntdeckt",
  "label": "Laufender Angriff auf Computersysteme entdeckt",
  "description": "Während einer Routine Software Wartung, fällt der für die IT zuständigen Person eine für diese Zeit ungewöhnlich hohe Auslastung des Netzwerks auf. ",
  "occurText": "Diese Aufälligkeiten wurden jedoch leider nicht näher untersucht. Später stellt sich heraus, dass Cyberkrimminelle erfolgreich Daten gestohlen haben und nun mit deren Veröffentlichung drohen. Um dies zu verhindern soll Ihr Unternehmen nun einen gewissen Betrag in einer Cryptowährung bezahlen.",
  "notOccurText": "Nach näherer Untersuchung stellt sich heraus, dass gerade jemand versucht, sehr große Datenmengen an eine unbekannte IP Adresse zu übertragen. Da der entsprechende Zugriff von einer unbekannten und nicht berechtigten IP außerhalb des Unternehmensnetzwerkes erfolgt, unterbricht der Systemadmin vorsichthalber diesen Vorgang und sperrt den unbekannten User. Nach sorgfältiger Untersuchung stellt sich heraus, dass hierdurch ein versuchter Datendiebstahl verhindert werden konnte.",
  "probability": 70,
  "cost": 0,
  "tags": ["Data", "UserFault"],
  "effectNames": ["payRansom2", "ignore1"],
  "requiredActions":["PayRansom2","Ignore1", "CyberversicherungNutzen"]
}
