{
  "name": "PartnerUnternehmenErlittCyberangriff",
  "label": "Partner-Unternehmen wurde Opfer eines Cyberangriffs",
  "description": "Sie erfahren aus den Medien, dass ein Unternehmen mit dem Sie zusammenarbeiten, Opfer eines Cyberangriffs wurde.",
  "occurText": "Das genannte Unternehmen informiert Sie, dass deren IT Forensiker verdächtige Netzwerkkommunikation zu Ihrem Netzwerk zurückverfolgen konnten. Dies könnten Anzeichen dafür sein, das auch Ihr Firmennetzwerk von denselben Angreifern infiltriert wurde.",
  "notOccurText": "Scheinbar noch mal Glück gehabt. Aus Vorsicht lassen Sie dennoch alle Zugangsdaten welche das betroffene Unternehmen bei Ihnen hat gegen neu erstellte Auswechseln. Eine weitere vorsorgliche Überprüfung des Emailverkehrs mit entsprechenden Emailadressen des Angegriffenen Unternehmens blieb ebenfalls unaufällig.",
  "probability": 45,
  "cost": 0,
  "tags": ["Network", "Data"],
  "effectNames": ["callIncidentRespondDienstleister", "interneITMitUntersuchgBeauftragen", "warnungIgnorieren"],
  "requiredActions":["CallIncidentRespondDienstleister", "InterneITMitUntersuchgBeauftragen", "WarnungIgnorieren", "CyberversicherungNutzen"],
  "hintText":"Ein erfogreich infiltriertes Unternehmensnetzwerk kann auch als Sprungbrett für weitere Angriffe genutzt werden. Naheliegende Ziele sind dabei häufig Partnerunternehmen mit denen Daten ausgetauscht werden. Angreifer können hierfür häufig die im Unternehmensnetzwerk erbeuteten Zugangsdaten für VPN-, Email-, Chat- und Fileshareanwendungen einsetzen."
}
