<svg id="Ball" xmlns="http://www.w3.org/2000/svg" xmlns:xlink="http://www.w3.org/1999/xlink" width="54.553" height="56.525" viewBox="0 0 54.553 56.525">
  <defs>
    <radialGradient id="radial-gradient" cx="0.567" cy="0.502" r="0.5" gradientTransform="matrix(0.991, 0.133, -0.133, 0.991, 0.347, -0.092)" gradientUnits="objectBoundingBox">
      <stop offset="0" stop-color="#fff" stop-opacity="0.408"/>
      <stop offset="0.536" stop-color="#fff" stop-opacity="0.424"/>
      <stop offset="0.859" stop-color="#fff" stop-opacity="0.541"/>
      <stop offset="1" stop-color="#fff" stop-opacity="0.631"/>
    </radialGradient>
  </defs>
  <path id="Top" d="M-1253.448-592.987h-54.545c0-.049,0-.1,0-.145v-.087a27.1,27.1,0,0,1,2.143-10.616,27.186,27.186,0,0,1,5.845-8.67,27.186,27.186,0,0,1,8.669-5.845,27.1,27.1,0,0,1,10.616-2.143,27.1,27.1,0,0,1,10.616,2.143,27.182,27.182,0,0,1,8.669,5.845,27.184,27.184,0,0,1,5.845,8.67,27.106,27.106,0,0,1,2.143,10.616c0,.077,0,.154,0,.231Z" transform="translate(1307.994 620.494)" opacity="0.7" fill="url(#radial-gradient)"/>
  <g id="Bottom" transform="translate(0 1.965)">
    <path id="Path_1" data-name="Path 1" d="M878.18,743.17a27.277,27.277,0,0,0,54.553,0Z" transform="translate(-878.18 -715.896)" fill="#f7ee64"/>
    <path id="Path_2" data-name="Path 2" d="M901.014,766.864A27.278,27.278,0,0,1,880.6,743.18H878.18a27.276,27.276,0,0,0,49.374,15.988A27.27,27.27,0,0,1,901.014,766.864Z" transform="translate(-878.18 -715.901)" fill="rgba(26,26,26,0.27)"/>
    <g id="Group_1" data-name="Group 1" transform="translate(0.005 25.542)">
      <path id="Path_3" data-name="Path 3" d="M878.228,743.3h54.46a27.441,27.441,0,0,0-.005-3.289H878.25A27.44,27.44,0,0,0,878.228,743.3Z" transform="translate(-878.189 -740.01)" fill="#fff"/>
    </g>
    <path id="Path_4" data-name="Path 4" d="M880.964,740.01H878.25a26.329,26.329,0,0,0-.017,3.289h2.719Q880.928,741.663,880.964,740.01Z" transform="translate(-878.184 -714.468)" fill="rgba(26,26,26,0.27)"/>
  </g>
</svg>
