<?xml version="1.0" encoding="utf-8"?>
<!-- Generator: Adobe Adobe Illustrator 24.2.0, SVG Export Plug-In . SVG Version: 6.00 Build 0)  -->
<svg version="1.1" xmlns="http://www.w3.org/2000/svg" xmlns:xlink="http://www.w3.org/1999/xlink" x="0px" y="0px"
	 viewBox="0 0 1200 1200" style="enable-background:new 0 0 1200 1200;" xml:space="preserve">
<style type="text/css">
	.st0{fill:#EDDFCC;}
	.st1{fill:#E84A4A;}
	.st2{fill:#E33D3D;}
	.st3{fill:#FF8282;}
	.st4{fill:#DE3535;}
	.st5{fill:#C92C2C;}
	.st6{fill:none;stroke:#8F1A1A;stroke-width:10;stroke-linecap:round;stroke-miterlimit:10;}
	.st7{fill:#FFFFFF;}
	.st8{fill:none;stroke:#8F1A1A;stroke-width:10;stroke-linecap:round;stroke-linejoin:round;stroke-miterlimit:10;}
</style>
<g id="Layer_3">
	<path class="st0" d="M52,955.25V291c0-45.77,37.1-82.87,82.87-82.87h930.25c45.77,0,82.87,37.1,82.87,82.87v664.25
		c0,45.77-37.1,82.87-82.87,82.87H134.87C89.1,1038.13,52,1001.03,52,955.25z"/>
	<g>
		<g>
			<path class="st1" d="M1148,348v-57c0-45.77-37.1-82.87-82.87-82.87H134.87C89.1,208.13,52,245.23,52,291v57H1148z"/>
		</g>
	</g>
	<g>
		<g>
			<path class="st2" d="M313.01,208.13H134.87C89.1,208.13,52,245.23,52,291v57h178.14v-57
				C230.14,245.23,267.24,208.13,313.01,208.13z"/>
		</g>
	</g>
</g>
<g id="Layer_4">
	<circle class="st3" cx="160.99" cy="278.06" r="24"/>
	<circle class="st3" cx="235.88" cy="278.06" r="24"/>
	<circle class="st3" cx="311.24" cy="278.06" r="24"/>
</g>
<g id="Layer_5">
	<path class="st4" d="M536.28,514.41L367.01,778.37c-27.24,42.48,3.26,98.27,53.72,98.27h338.53c50.46,0,80.96-55.79,53.72-98.27
		L643.72,514.41C618.61,475.25,561.39,475.25,536.28,514.41z"/>
	<g>
		<g>
			<path class="st5" d="M491.88,743.51l149.28-232.79c-26.25-35.41-80.59-34.18-104.89,3.7L367.01,778.37
				c-27.24,42.48,3.26,98.27,53.72,98.27h86.11C473.32,843.45,462.77,788.91,491.88,743.51z"/>
		</g>
	</g>
	<path class="st6" d="M662.03,542.97l-18.31-28.55c-25.11-39.16-82.33-39.16-107.44,0L367.01,778.37
		c-27.24,42.48,3.26,98.27,53.72,98.27h338.53c50.46,0,80.96-55.79,53.72-98.27L676.11,564.92"/>
	<g>
		<path class="st7" d="M570.21,712.16l-5.76-86.17c-1.08-16.79-1.62-28.84-1.62-36.16c0-9.95,2.61-17.72,7.82-23.3
			c5.22-5.58,12.08-8.36,20.6-8.36c10.31,0,17.21,3.57,20.69,10.7c3.48,7.14,5.22,17.42,5.22,30.85c0,7.92-0.42,15.95-1.26,24.11
			l-7.73,88.69c-0.84,10.55-2.64,18.65-5.4,24.29c-2.76,5.64-7.32,8.46-13.67,8.46c-6.48,0-10.97-2.73-13.49-8.19
			C573.09,731.62,571.29,723.31,570.21,712.16z M590.18,830.53c-7.32,0-13.7-2.37-19.16-7.11c-5.46-4.74-8.19-11.36-8.19-19.88
			c0-7.43,2.61-13.76,7.82-18.98c5.22-5.22,11.6-7.83,19.16-7.83c7.56,0,14,2.61,19.34,7.83c5.33,5.22,8,11.54,8,18.98
			c0,8.4-2.7,14.99-8.09,19.79C603.67,828.13,597.38,830.53,590.18,830.53z"/>
	</g>
	<g>
		<path class="st8" d="M614.04,790.9c2.08,3.78,3.13,7.99,3.13,12.64c0,8.4-2.7,14.99-8.09,19.79c-5.4,4.8-11.69,7.2-18.89,7.2
			c-7.32,0-13.7-2.37-19.16-7.11c-5.46-4.74-8.19-11.36-8.19-19.88c0-7.43,2.61-13.76,7.82-18.98c5.22-5.22,11.6-7.83,19.16-7.83
			c5.28,0,10.02,1.27,14.21,3.82 M614.23,574.82c1.96,6.53,2.93,14.84,2.93,24.91c0,7.92-0.42,15.95-1.26,24.11l-7.73,88.69
			c-0.84,10.55-2.64,18.65-5.4,24.29c-2.76,5.64-7.32,8.46-13.67,8.46c-6.48,0-10.97-2.73-13.49-8.19
			c-2.52-5.46-4.32-13.76-5.4-24.91l-5.76-86.17c-1.08-16.79-1.62-28.84-1.62-36.16c0-9.95,2.61-17.72,7.82-23.3
			c5.22-5.58,12.08-8.36,20.6-8.36c6.23,0,11.21,1.3,14.94,3.9"/>
	</g>
</g>
</svg>
